,kennedy.xls,paper1,trans,book1,paper6,news,paper3,plrabn12.txt,trans.lz77,9,obj2,arj241a.exe,book2,bib,plrabn12.txt.lz77,news.lz77,5,book1.lz77,paper1.lz77,paper2,fields.c,progl,2,14,progp,7,pic,cp.htm,paper4,alice29.txt,15,6,13,12,obj1,1,grammar.lsp,geo,cp.html,paper5,kennedy.xls.lz77,11,8,4,asyoulik.txt,3,sum,ptt5,paper3.lz77,16,lcet10.txt,paper6.lz77,progc,xargs.1,10
kennedy.xls,0,952528,952490,952497,952497,952507,952507,952520,952497,952505,952471,952530,952519,952507,952507,952507,952561,952497,952528,952509,952556,952530,952561,952561,952561,952511,952525,952487,952480,952507,952556,952561,952525,952524,952456,952535,952552,952464,952487,952522,952235,952524,952561,952561,952545,952561,952357,952525,952507,952540,952496,952496,952508,952523,952539
paper1,18568,0,18293,18030,17919,18072,17663,18149,18288,18383,18561,18568,17800,18089,18143,18062,18534,18032,17442,17753,18451,18389,18543,18529,18463,18503,18568,18296,17877,18148,18469,18528,18459,18419,18478,18451,18493,18568,18296,17937,18568,18387,18514,18545,18170,18535,18474,18568,17664,18442,18069,17918,18248,18348,18388
trans,19053,18647,0,18706,18675,18657,18501,18753,18034,18816,19044,19053,18685,18547,18709,18657,19012,18705,18642,18568,18965,18918,19017,18984,18969,18983,19055,18806,18539,18758,18921,19005,18911,18880,18975,18912,18981,19055,18806,18702,19053,18863,18985,19013,18782,19011,19000,19055,18501,18910,18656,18676,18846,18882,18862
book1,731260,728200,729512,0,728358,728010,727153,727412,729507,729740,731197,731260,727722,728750,727336,728004,730992,726037,728195,727514,730256,729858,731065,730917,730454,730697,731260,729630,728116,727261,730423,730920,730211,729985,730535,730419,730469,731260,729630,728677,731260,729898,730734,731041,727881,731042,730650,731260,727162,730401,728373,728345,729354,729957,729960
paper6,13312,12708,13092,12888,0,12858,12645,12927,13090,13124,13306,13312,12705,12979,12911,12852,13291,12888,12705,12708,13184,13162,13293,13279,13204,13259,13312,13114,12680,12956,13227,13287,13210,13172,13230,13218,13261,13312,13114,12601,13311,13150,13271,13294,12964,13289,13228,13312,12646,13207,12868,12014,13043,13127,13156
news,339687,336877,337859,336101,336787,0,336088,336656,337735,338046,339611,339687,336697,336990,336690,335464,339340,336102,336876,336270,338685,338429,339337,339168,338816,338960,339687,337876,336616,336661,338833,339259,338486,338337,339026,338771,338948,339687,337876,337012,339687,338265,339140,339364,336806,339270,339085,339687,336088,338708,336750,336785,337696,338457,338291
paper3,18087,17337,17760,17464,17461,17470,0,17480,17748,17854,18080,18087,17337,17383,17503,17468,18061,17465,17334,17178,17961,17925,18067,18052,17977,18029,18087,17817,17314,17544,17954,18056,17969,17923,17994,17965,18009,18087,17817,17500,18087,17924,18036,18064,17584,18064,18012,18087,16793,17930,17537,17470,17830,17866,17897
plrabn12.txt,445081,442541,443612,441717,442781,442308,441917,0,443596,443596,445059,445081,442444,442961,440273,442277,444754,441707,442542,442160,444310,443950,444801,444706,444325,444483,445081,443645,442729,441902,444327,444740,444072,443854,444362,444317,444387,445081,443645,443147,445081,443776,444581,444787,441984,444771,444575,445081,441921,444249,442409,442765,443405,444014,443684
trans.lz77,19636,19225,18611,19283,19256,19235,19075,19326,0,19399,19628,19636,19264,19121,19273,19210,19597,19279,19202,19139,19549,19503,19602,19570,19550,19569,19636,19388,19115,19338,19505,19590,19496,19464,19554,19499,19565,19636,19388,19278,19623,19446,19570,19598,19362,19596,19578,19636,19073,19496,19224,19233,19430,19460,19447
9,3901,3846,3856,3837,3838,3810,3789,3816,3856,0,3905,3902,3835,3844,3837,3809,3657,3837,3846,3817,3902,3906,3658,3642,3914,3514,3901,3875,3821,3858,3615,3654,2993,2990,3914,3629,3892,3901,3875,3853,3901,2979,3635,3661,3859,3656,3905,3901,3789,3636,3807,3837,3884,3854,2978
obj2,219616,217609,217848,217597,217605,217589,217489,217600,217837,217857,0,219702,217609,217603,217604,217589,219325,217597,217597,217526,218522,218155,219344,219279,218959,219025,219685,217857,217567,217654,218902,219336,218167,218128,218978,218528,219032,219628,217857,217688,219673,218051,219113,219348,217646,219337,218716,219685,217489,218297,217607,217603,217842,218106,217843
arj241a.exe,223428,223415,223421,223418,223417,223411,223415,223415,223421,223417,223427,0,223417,223410,223415,223411,223425,223418,223415,223415,223429,223415,223427,223426,223426,223423,223425,223411,223416,223417,223424,223425,223423,223421,223424,223425,223420,223426,223411,223421,223427,223417,223424,223425,223418,223427,223428,223425,223415,223427,223409,223417,223416,223419,223422
book2,559693,554620,556787,554745,554996,554928,553685,555418,556756,557365,559653,559691,0,555788,555401,554915,559305,554763,554620,554032,558234,557544,559338,559136,558266,558840,559693,557311,554536,555455,558422,559150,558193,557799,558472,558240,558659,559693,557311,555712,559693,557712,558984,559364,555734,559298,558523,559693,553687,558190,555251,554968,556907,557575,557558
bib,52756,48914,50016,49398,49636,48985,48065,49407,50018,50521,52664,52756,49072,0,49295,48838,52245,49368,48897,49023,51477,51292,52335,52250,51723,51709,52756,49455,48672,50049,51475,52133,51127,51070,51769,51580,51846,52756,49455,50017,52756,50943,52076,52370,49954,52269,51912,52756,48065,51470,48137,49638,50842,51234,50883
plrabn12.txt.lz77,381340,378869,379898,378044,379062,378615,378194,376651,379808,379882,381296,381340,378769,379288,0,378563,381037,378008,378818,378483,380564,380255,381097,380993,380575,380788,381340,379928,379011,378172,380581,381020,380351,380187,380616,380566,380688,381340,379928,379437,381290,380082,380859,381081,378280,381062,380853,381340,378166,380479,378714,378969,379725,380296,379977
news.lz77,337380,334498,335545,333735,334464,333105,333797,334177,335409,335673,337303,337380,334287,334610,334159,0,337002,333704,334434,333911,336427,336032,337001,336835,336492,336554,337380,335532,334127,334268,336500,336941,336102,335935,336572,336470,336523,337380,335532,334588,337355,335838,336767,337025,334470,336956,336642,337380,333783,336427,334402,334402,335506,336114,335893
5,383,369,360,370,380,354,367,367,359,153,378,383,369,366,366,354,0,370,369,367,381,379,101,171,384,153,383,364,373,380,166,93,165,164,382,167,383,383,364,378,383,179,161,98,379,106,380,383,367,186,357,381,378,377,161
book1.lz77,731254,728213,729513,725986,728405,728010,727132,727332,729438,729745,731224,731254,727738,728697,727186,727933,731035,0,728091,727499,730267,729888,731087,730957,730440,730669,731254,729626,728137,727138,730437,730956,730198,730002,730521,730423,730474,731254,729626,728635,731232,729917,730747,731066,727851,731063,730623,731254,727127,730398,728425,728307,729384,729972,729984
paper1.lz77,18771,17648,18485,18233,18117,18274,17865,18352,18468,18578,18764,18771,18000,18283,18337,18252,18736,18229,0,17953,18646,18584,18745,18730,18658,18707,18771,18492,18072,18343,18666,18731,18655,18612,18672,18654,18698,18771,18492,18130,18764,18582,18718,18747,18366,18738,18675,18771,17857,18640,18265,18097,18441,18544,18583
paper2,30063,28936,29420,28926,29045,29061,28523,29111,29415,29462,29992,30063,28889,29241,29122,29059,29824,28926,28930,0,29586,29504,29866,29746,29612,29672,30063,29472,28964,29104,29602,29778,29585,29519,29621,29604,29661,30063,29472,29112,30063,29543,29669,29855,29193,29855,29645,30063,28524,29581,29120,29036,29410,29490,29505
fields.c,3129,2992,3049,3029,3006,2994,3000,3031,3047,3070,3130,3129,2970,3062,3041,2995,3111,3030,2993,2974,0,3077,3113,3112,3097,3095,3129,3066,3001,3040,3069,3109,3082,3079,3096,3084,3090,3129,3066,3011,3129,3061,3097,3119,3061,3112,3083,3129,3001,3074,3022,3006,2979,3020,3061
progl,16261,16063,16167,16056,16060,16063,16003,16092,16163,16171,16255,16261,16026,16130,16055,16058,16245,16054,16065,15975,16201,0,16252,16252,16193,16227,16261,16170,16034,16105,16216,16245,16214,16207,16208,16196,16227,16261,16170,16063,16261,16184,16232,16249,16104,16250,16205,16261,16003,16204,16109,16059,16107,16139,16176
2,370,360,351,363,371,348,358,358,351,139,370,370,362,359,362,348,88,363,360,360,371,370,0,160,374,142,370,358,367,371,151,88,151,152,371,148,373,370,358,370,370,166,151,89,370,57,372,370,358,171,351,371,368,367,148
14,480,465,452,463,477,442,461,463,452,245,480,480,472,463,457,442,271,463,466,458,483,480,272,0,481,264,480,464,469,465,251,271,244,236,484,254,482,480,464,477,480,258,258,272,462,272,486,480,461,255,453,476,469,474,242
progp,11237,11031,11112,11074,11052,11042,11019,11068,11112,11137,11234,11237,11006,11089,11074,11043,11220,11074,11033,10990,11162,11145,11221,11215,0,11203,11237,11160,11022,11100,11169,11214,11175,11165,11174,11167,11196,11237,11160,10997,11237,11161,11213,11225,11099,11220,11171,11237,11019,11182,11082,11053,11054,11100,11146
7,835,814,823,823,830,801,814,819,823,480,837,837,819,826,824,799,611,823,814,824,838,839,614,616,846,0,835,823,823,829,605,614,482,480,843,608,840,835,823,833,835,496,602,619,829,609,842,835,814,635,804,831,835,832,476
pic,350060,350060,350060,350060,350060,350060,350060,350060,350060,350060,350060,350060,350060,350060,350060,350060,350060,350060,350060,350060,350065,350060,350060,350060,350060,350060,0,350060,350060,350060,350060,350060,350060,350060,350060,350060,350060,350060,350060,350065,350060,350060,350060,350060,350060,350060,350060,350060,350060,350060,350060,350060,350060,350060,350060
cp.htm,7969,7796,7890,7852,7827,7786,7801,7847,7886,7861,7970,7969,7804,7648,7856,7783,7946,7852,7794,7816,7934,7928,7953,7948,7960,7942,7969,0,7798,7884,7904,7946,7899,7892,7941,7914,7944,7969,268,7843,7969,7892,7935,7954,7869,7953,7957,7969,7802,7908,7709,7827,7909,7920,7874
paper4,5526,5081,5374,5209,5043,5201,4903,5252,5368,5392,5535,5526,5031,5122,5261,5197,5505,5210,5085,5008,5470,5480,5511,5499,5498,5487,5526,5418,0,5288,5473,5504,5437,5420,5484,5448,5475,5525,5418,5125,5526,5400,5483,5513,5314,5509,5501,5526,4903,5428,5160,5046,5390,5378,5388
alice29.txt,101542,98660,99567,96093,98886,98047,97764,97460,99574,99738,101461,101542,98365,99141,97360,98046,101125,96105,98652,97886,100513,100109,101201,101003,100488,100863,101542,99798,98453,0,100620,101100,100362,100255,100700,100640,100657,101542,99798,99301,101526,100038,100961,101200,97299,101148,100876,101542,97749,100401,98814,98880,99600,100091,99996
15,782,732,734,736,750,698,715,731,733,531,784,782,725,732,741,697,568,736,733,728,782,784,570,555,792,557,782,764,736,758,0,568,541,547,786,544,781,782,764,746,782,563,557,569,752,569,790,782,715,537,711,750,762,763,533
6,401,383,380,385,393,370,375,382,379,168,400,401,384,380,383,370,122,385,383,380,401,400,130,188,403,181,401,385,389,397,186,0,182,183,401,185,395,401,385,395,401,200,177,130,392,135,398,401,375,199,369,392,395,393,183
13,1746,1718,1733,1716,1743,1713,1704,1721,1731,889,1747,1749,1735,1714,1723,1712,1528,1716,1718,1711,1752,1753,1528,1506,1756,1397,1746,1754,1714,1741,1509,1526,0,605,1759,1507,1750,1746,1754,1737,1746,605,1509,1528,1728,1528,1751,1746,1704,1507,1703,1741,1752,1729,575
12,1979,1921,1950,1940,1945,1914,1900,1939,1945,1097,1980,1981,1924,1913,1946,1913,1757,1941,1916,1913,1988,1995,1754,1728,1986,1616,1979,1968,1926,1962,1736,1756,828,0,1989,1728,1982,1979,1968,1957,1979,818,1734,1758,1952,1755,1989,1979,1900,1736,1898,1946,1968,1962,797
obj1,10324,10201,10287,10244,10237,10232,10209,10244,10285,10298,10328,10326,10214,10253,10231,10230,10320,10244,10199,10201,10285,10293,10321,10325,10288,10315,10328,10281,10214,10249,10304,10318,10308,10305,0,10304,10310,10335,10281,10245,10329,10294,10322,10318,10268,10322,10314,10328,10210,10295,10256,10236,10255,10251,10293
1,751,699,722,700,715,683,685,710,720,507,753,751,697,710,703,681,543,700,699,686,762,746,538,532,760,532,751,733,706,723,517,543,518,502,758,0,756,751,733,717,751,526,537,544,707,539,758,751,685,530,666,715,748,733,501
grammar.lsp,1230,1212,1219,1212,1213,1212,1207,1201,1218,1229,1232,1230,1228,1216,1207,1213,1227,1212,1212,1214,1238,1238,1228,1231,1232,1232,1230,1229,1201,1217,1227,1225,1226,1226,1233,1231,0,1230,1229,1208,1230,1221,1228,1230,1187,1228,1241,1230,1207,1229,1214,1212,1236,1224,1224
geo,92340,92343,92342,92343,92343,92343,92343,92343,92343,92338,92330,92343,92343,92343,92343,92343,92343,92343,92343,92343,92338,92343,92343,92343,92343,92338,92342,92338,92338,92343,92343,92343,92338,92338,92339,92343,92338,0,92338,92338,92341,92338,92343,92343,92343,92343,92346,92342,92343,92338,92343,92343,92343,92338,92338
cp.html,7969,7796,7890,7852,7827,7786,7801,7847,7886,7861,7970,7969,7804,7648,7856,7783,7946,7852,7794,7816,7934,7928,7953,7948,7960,7942,7969,268,7798,7884,7904,7946,7899,7892,7941,7914,7944,7969,0,7843,7969,7892,7935,7954,7869,7953,7957,7969,7802,7908,7709,7827,7909,7920,7874
paper5,4986,4564,4837,4758,4521,4730,4509,4795,4834,4864,4992,4986,4576,4771,4797,4730,4972,4760,4561,4572,4927,4940,4978,4968,4947,4941,4986,4879,4584,4811,4908,4967,4907,4902,4949,4915,4926,4986,4879,0,4986,4891,4960,4973,4824,4975,4961,4986,4509,4925,4649,4514,4873,4866,4886
kennedy.xls.lz77,209175,210573,210516,210528,210528,210543,210546,210568,209350,210547,210489,210636,210566,210546,209828,209571,210762,210472,209332,210547,210767,210574,210762,210762,210762,210563,210577,210514,210494,210546,210762,210762,210574,210574,210481,210637,210680,210487,210514,210574,0,210574,210762,210762,210659,210762,209340,210577,210482,210660,210518,209657,210540,210575,210658
11,2162,2102,2138,2119,2116,2076,2078,2113,2136,1282,2163,2163,2106,2108,2117,2077,1965,2119,2102,2109,2161,2166,1962,1937,2171,1823,2162,2151,2106,2143,1934,1963,1019,1004,2177,1946,2161,2162,2151,2125,2162,0,1941,1964,2118,1962,2169,2162,2080,1885,2065,2116,2148,2127,965
8,481,459,450,453,457,432,449,448,448,241,480,481,456,464,446,431,268,453,459,446,478,476,270,259,485,246,481,459,457,455,249,259,240,246,485,259,479,481,459,468,481,260,0,267,455,268,483,481,449,277,443,457,474,470,235
4,357,347,339,348,357,334,345,344,338,128,356,357,351,344,347,334,69,348,347,343,358,357,71,144,361,135,357,346,353,355,137,71,136,135,359,135,360,357,346,355,357,152,132,0,356,74,359,357,345,156,335,357,356,353,134
asyoulik.txt,82839,80467,81431,78899,80440,80163,79701,78831,81428,81200,82805,82839,80331,80768,78790,80149,82652,78917,80460,79872,82089,81821,82680,82585,82146,82318,82839,81441,80382,79492,82125,82604,81794,81657,82280,82157,82251,82839,81441,80991,82839,81573,82501,82668,0,82678,82487,82839,79701,82090,80584,80435,81277,81744,81410
3,382,367,360,374,379,356,366,367,360,149,379,382,367,369,371,355,107,374,367,367,380,379,73,171,384,152,382,366,373,377,166,107,164,166,382,160,383,382,366,380,382,177,164,106,377,0,382,382,366,182,358,379,377,373,163
sum,13022,12887,12936,12903,12905,12874,12883,12923,12939,12933,13003,13001,12891,12904,12917,12876,12986,12903,12882,12863,12953,12939,12985,12988,12959,12978,12997,12933,12903,12918,12965,12980,12954,12955,12945,12967,12979,13016,12933,12918,13000,12938,12980,12986,12933,12985,0,12997,12883,12961,12915,12902,12884,12918,12933
ptt5,350060,350060,350060,350060,350060,350060,350060,350060,350060,350060,350060,350060,350060,350060,350060,350060,350060,350060,350060,350060,350065,350060,350060,350060,350060,350060,350060,350060,350060,350060,350060,350060,350060,350060,350060,350060,350060,350060,350060,350065,350060,350060,350060,350060,350060,350060,350060,0,350060,350060,350060,350060,350060,350060,350060
paper3.lz77,18143,17393,17819,17520,17515,17529,16852,17535,17778,17909,18135,18143,17397,17439,17544,17510,18118,17511,17362,17235,18018,17982,18124,18109,18033,18089,18143,17873,17369,17601,18008,18115,18024,17978,18051,18022,18064,18143,17873,17557,18129,17980,18092,18121,17642,18121,18070,18143,0,17985,17596,17493,17887,17921,17952
16,1045,981,993,990,995,962,960,993,993,795,1047,1045,990,996,987,958,845,990,983,966,1038,1042,845,820,1051,837,1045,1015,981,1008,794,843,799,804,1044,814,1045,1045,1015,1009,1045,762,832,845,1010,842,1052,1045,959,0,949,998,1010,1012,784
lcet10.txt,371845,367492,369015,367188,367741,367277,366043,367298,368912,369179,371758,371815,367327,367326,367315,367270,371414,367180,367486,366871,370439,370161,371430,371333,370752,370832,371845,368600,367296,367610,370664,371346,369966,369808,370840,370489,370965,371845,368600,368099,371845,369566,371214,371458,367914,371407,371079,371845,366043,370415,0,367736,369453,369971,369421
paper6.lz77,13492,12887,13273,13067,12215,13038,12820,13106,13251,13305,13488,13492,12888,13162,13076,13019,13469,13057,12860,12892,13362,13339,13472,13458,13380,13434,13492,13293,12867,13137,13404,13465,13385,13352,13406,13394,13435,13492,13293,12785,13483,13329,13451,13472,13143,13468,13408,13492,12814,13386,13051,0,13224,13304,13336
progc,13351,12910,13127,12992,12969,12915,12926,13042,13124,13168,13348,13352,12924,13069,13050,12914,13325,12992,12908,12878,13122,13194,13331,13317,13235,13306,13352,13139,12982,13068,13253,13320,13237,13233,13261,13256,13296,13352,13139,13037,13352,13208,13310,13332,13083,13331,13238,13352,12927,13238,13019,12966,0,13111,13199
xargs.1,1745,1624,1682,1669,1648,1618,1590,1668,1684,1675,1750,1745,1627,1698,1659,1617,1735,1672,1626,1594,1709,1720,1733,1727,1727,1722,1745,1728,1609,1679,1701,1732,1700,1690,1718,1703,1728,1745,1728,1637,1745,1689,1721,1734,1672,1728,1728,1745,1590,1686,1646,1647,1631,0,1686
10,2318,2272,2293,2262,2271,2247,2237,2268,2291,1425,2319,2320,2276,2265,2270,2247,2100,2262,2275,2246,2319,2312,2097,2072,2323,1952,2318,2309,2261,2285,2068,2099,1135,1144,2330,2069,2319,2318,2309,2281,2318,1126,2071,2100,2276,2102,2327,2318,2237,2055,2223,2273,2301,2297,0
File,Best Dictionary,Size,Worst Dictionary,Size,No Dictionary

kennedy.xls,kennedy.xls,0,5,952561,0
paper1,paper1,0,kennedy.xls,18568,0
trans,trans,0,pic,19055,0
book1,book1,0,kennedy.xls,731260,0
paper6,paper6,0,kennedy.xls,13312,0
news,news,0,kennedy.xls,339687,0
paper3,paper3,0,kennedy.xls,18087,0
plrabn12.txt,plrabn12.txt,0,kennedy.xls,445081,0
trans.lz77,trans.lz77,0,kennedy.xls,19636,0
9,9,0,progp,3914,0
obj2,obj2,0,arj241a.exe,219702,0
arj241a.exe,arj241a.exe,0,fields.c,223429,0
book2,book2,0,kennedy.xls,559693,0
bib,bib,0,kennedy.xls,52756,0
plrabn12.txt.lz77,plrabn12.txt.lz77,0,kennedy.xls,381340,0
news.lz77,news.lz77,0,kennedy.xls,337380,0
5,5,0,progp,384,0
book1.lz77,book1.lz77,0,kennedy.xls,731254,0
paper1.lz77,paper1.lz77,0,kennedy.xls,18771,0
paper2,paper2,0,kennedy.xls,30063,0
fields.c,fields.c,0,obj2,3130,0
progl,progl,0,kennedy.xls,16261,0
2,2,0,progp,374,0
14,14,0,sum,486,0
progp,progp,0,kennedy.xls,11237,0
7,7,0,progp,846,0
pic,pic,0,fields.c,350065,0
cp.htm,cp.htm,0,obj2,7970,0
paper4,paper4,0,obj2,5535,0
alice29.txt,alice29.txt,0,kennedy.xls,101542,0
15,15,0,progp,792,0
6,6,0,progp,403,0
13,13,0,obj1,1759,0
12,12,0,progl,1995,0
obj1,obj1,0,geo,10335,0
1,1,0,fields.c,762,0
grammar.lsp,grammar.lsp,0,sum,1241,0
geo,geo,0,sum,92346,0
cp.html,cp.html,0,obj2,7970,0
paper5,paper5,0,obj2,4992,0
kennedy.xls.lz77,kennedy.xls.lz77,0,fields.c,210767,0
11,11,0,obj1,2177,0
8,8,0,progp,485,0
4,4,0,progp,361,0
asyoulik.txt,asyoulik.txt,0,kennedy.xls,82839,0
3,3,0,progp,384,0
sum,sum,0,kennedy.xls,13022,0
ptt5,ptt5,0,fields.c,350065,0
paper3.lz77,paper3.lz77,0,kennedy.xls,18143,0
16,16,0,sum,1052,0
lcet10.txt,lcet10.txt,0,kennedy.xls,371845,0
paper6.lz77,paper6.lz77,0,kennedy.xls,13492,0
progc,progc,0,arj241a.exe,13352,0
xargs.1,xargs.1,0,obj2,1750,0
10,10,0,obj1,2330,0